<svg xmlns="http://www.w3.org/2000/svg" width="24" height="24" viewBox="0 0 24 24">
  <metadata><?xpacket begin="﻿" id="W5M0MpCehiHzreSzNTczkc9d"?>
<x:xmpmeta xmlns:x="adobe:ns:meta/" x:xmptk="Adobe XMP Core 5.6-c138 79.159824, 2016/09/14-01:09:01        ">
   <rdf:RDF xmlns:rdf="http://www.w3.org/1999/02/22-rdf-syntax-ns#">
      <rdf:Description rdf:about=""/>
   </rdf:RDF>
</x:xmpmeta>
                                                                                                    
                                                                                                    
                                                                                                    
                                                                                                    
                                                                                                    
                                                                                                    
                                                                                                    
                                                                                                    
                                                                                                    
                                                                                                    
                                                                                                    
                                                                                                    
                                                                                                    
                                                                                                    
                                                                                                    
                                                                                                    
                                                                                                    
                                                                                                    
                                                                                                    
                                                                                                    
                           
<?xpacket end="w"?></metadata>
<defs>
    <style>
      .cls-1 {
        fill: #c99065;
        fill-rule: evenodd;
      }
    </style>
  </defs>
  <path class="cls-1" d="M193,426H163a1,1,0,0,1,0-2h30A1,1,0,0,1,193,426Zm0,11H163a1,1,0,0,1,0-2h30A1,1,0,0,1,193,437Zm0,11H163a1,1,0,0,1,0-2h30A1,1,0,0,1,193,448Zm0-11H163a1,1,0,0,1,0-2h30A1,1,0,0,1,193,437Z" transform="translate(-166 -424)"/>
</svg>
